module gitlab.com/benjamin-rood/device-mgmt

go 1.22.4

require (
	github.com/aws/aws-sdk-go-v2 v1.30.0
	github.com/aws/aws-sdk-go-v2/config v1.27.22
	github.com/aws/aws-sdk-go-v2/credentials v1.17.22
	github.com/aws/aws-sdk-go-v2/feature/dynamodb/attributevalue v1.14.6
	github.com/aws/aws-sdk-go-v2/service/dynamodb v1.34.0
	github.com/gin-gonic/gin v1.10.0
	github.com/google/uuid v1.6.0
	github.com/stretchr/testify v1.9.0
	github.com/wI2L/fizz v0.22.0
)

require (
	github.com/aws/aws-sdk-go-v2/feature/ec2/imds v1.16.8 // indirect
	github.com/aws/aws-sdk-go-v2/internal/configsources v1.3.12 // indirect
	github.com/aws/aws-sdk-go-v2/internal/endpoints/v2 v2.6.12 // indirect
	github.com/aws/aws-sdk-go-v2/internal/ini v1.8.0 // indirect
	github.com/aws/aws-sdk-go-v2/service/dynamodbstreams v1.22.0 // indirect
	github.com/aws/aws-sdk-go-v2/service/internal/accept-encoding v1.11.2 // indirect
	github.com/aws/aws-sdk-go-v2/service/internal/endpoint-discovery v1.9.13 // indirect
	github.com/aws/aws-sdk-go-v2/service/internal/presigned-url v1.11.14 // indirect
	github.com/aws/aws-sdk-go-v2/service/sso v1.22.0 // indirect
	github.com/aws/aws-sdk-go-v2/service/ssooidc v1.26.0 // indirect
	github.com/aws/aws-sdk-go-v2/service/sts v1.30.0 // indirect
	github.com/aws/smithy-go v1.20.2 // indirect
	github.com/bytedance/sonic v1.11.6 // indirect
	github.com/bytedance/sonic/loader v0.1.1 // indirect
	github.com/cloudwego/base64x v0.1.4 // indirect
	github.com/cloudwego/iasm v0.2.0 // indirect
	github.com/davecgh/go-spew v1.1.1 // indirect
	github.com/gabriel-vasile/mimetype v1.4.3 // indirect
	github.com/gin-contrib/sse v0.1.0 // indirect
	github.com/go-playground/locales v0.14.1 // indirect
	github.com/go-playground/universal-translator v0.18.1 // indirect
	github.com/go-playground/validator/v10 v10.20.0 // indirect
	github.com/goccy/go-json v0.10.2 // indirect
	github.com/gofrs/uuid v3.2.0+incompatible // indirect
	github.com/jmespath/go-jmespath v0.4.0 // indirect
	github.com/json-iterator/go v1.1.12 // indirect
	github.com/klauspost/cpuid/v2 v2.2.7 // indirect
	github.com/leodido/go-urn v1.4.0 // indirect
	github.com/loopfz/gadgeto v0.11.4 // indirect
	github.com/mattn/go-isatty v0.0.20 // indirect
	github.com/modern-go/concurrent v0.0.0-20180306012644-bacd9c7ef1dd // indirect
	github.com/modern-go/reflect2 v1.0.2 // indirect
	github.com/pelletier/go-toml/v2 v2.2.2 // indirect
	github.com/pmezard/go-difflib v1.0.0 // indirect
	github.com/stretchr/objx v0.5.2 // indirect
	github.com/twitchyliquid64/golang-asm v0.15.1 // indirect
	github.com/ugorji/go/codec v1.2.12 // indirect
	golang.org/x/arch v0.8.0 // indirect
	golang.org/x/crypto v0.23.0 // indirect
	golang.org/x/net v0.25.0 // indirect
	golang.org/x/sys v0.20.0 // indirect
	golang.org/x/text v0.15.0 // indirect
	google.golang.org/protobuf v1.34.1 // indirect
	gopkg.in/yaml.v3 v3.0.1 // indirect
	sigs.k8s.io/yaml v1.4.0 // indirect
)
